…
``` r
ramen_ratings %>%
  select(brand,variety,stars) %>%
  group_by(variety) %>%
  filter(stars>="4.5") %>%
  count(variety) %>%
  filter(n>1) %>%
  arrange(desc(n))
```

    ## # A tibble: 21 × 2
    ## # Groups:   variety [21]
    ##    variety                                   n
    ##    <chr>                                 <int>
    ##  1 Yakisoba                                  5
    ##  2 Curry Udon                                3
    ##  3 Kokomen Spicy Chicken                     3
    ##  4 Artificial Chicken                        2
    ##  5 Chef Creamy Tom Yam Flavour               2
    ##  6 Chef Curry Laksa Flavour                  2
    ##  7 Chef Lontong Flavour                      2
    ##  8 Chongqing Noodles Burning Dry Noodles     2
    ##  9 Curry Flavour Instant Noodles             2
    ## 10 Hakata Tonkotsu Ramen                     2
    ## # … with 11 more rows
    ## # ℹ Use `print(n = ...)` to see more rows
…
#### Country With the most Ramen Brands

Finally, I want to find out the country that produces the most ramen so
I can be sure to visit during my next vacation!

``` r
Country_ramen <- ramen_ratings %>% 
  select(variety,country) %>%
  group_by(country) %>%
  count(country) %>%
  arrange(desc(n))
Country_ramen
```

    ## # A tibble: 38 × 2
    ## # Groups:   country [38]
    ##    country         n
    ##    <chr>       <int>
    ##  1 Japan         352
    ##  2 USA           323
    ##  3 South Korea   307
    ##  4 Taiwan        224
    ##  5 Thailand      191
    ##  6 China         169
    ##  7 Malaysia      155
    ##  8 Hong Kong     137
    ##  9 Indonesia     126
    ## 10 Singapore     109
    ## # … with 28 more rows
    ## # ℹ Use `print(n = ...)` to see more rows
…
